%YAML 1.1
%TAG !u! tag:unity3d.com,2011:
--- !u!74 &7400000
AnimationClip:
  m_ObjectHideFlags: 0
  m_CorrespondingSourceObject: {fileID: 0}
  m_PrefabInstance: {fileID: 0}
  m_PrefabAsset: {fileID: 0}
  m_Name: char_run
  serializedVersion: 6
  m_Legacy: 0
  m_Compressed: 0
  m_UseHighQualityCurve: 1
  m_RotationCurves: []
  m_CompressedRotationCurves: []
  m_EulerCurves: []
  m_PositionCurves: []
  m_ScaleCurves: []
  m_FloatCurves: []
  m_PPtrCurves:
  - curve:
    - time: 0
      value: {fileID: 21300000, guid: a0670e5304a3bee46af01518d6e1e917, type: 3}
    - time: 0.05
      value: {fileID: 21300000, guid: fb3dd80bbc9ee664c93dbdab9191863a, type: 3}
    - time: 0.083333336
      value: {fileID: 21300000, guid: 84d026373c1953a478682a765e144ab5, type: 3}
    - time: 0.11666667
      value: {fileID: 21300000, guid: a2a2e9dd2dcccb748bea80f34570a726, type: 3}
    - time: 0.18333334
      value: {fileID: 21300000, guid: d30b547d393cd4445bb330876fcea8df, type: 3}
    - time: 0.21666667
      value: {fileID: 21300000, guid: 1730264f1e4d70548a10626e0cc515e0, type: 3}
    - time: 0.26666668
      value: {fileID: 21300000, guid: 3989da07bd965d143b20918e8766037c, type: 3}
    - time: 0.31666666
      value: {fileID: 21300000, guid: a64a2321b8cef2144807e32f75faab3f, type: 3}
    attribute: m_Sprite
    path: 
    classID: 212
    script: {fileID: 0}
  m_SampleRate: 60
  m_WrapMode: 0
  m_Bounds:
    m_Center: {x: 0, y: 0, z: 0}
    m_Extent: {x: 0, y: 0, z: 0}
  m_ClipBindingConstant:
    genericBindings:
    - serializedVersion: 2
      path: 0
      attribute: 0
      script: {fileID: 0}
      typeID: 212
      customType: 23
      isPPtrCurve: 1
    pptrCurveMapping:
    - {fileID: 21300000, guid: a0670e5304a3bee46af01518d6e1e917, type: 3}
    - {fileID: 21300000, guid: fb3dd80bbc9ee664c93dbdab9191863a, type: 3}
    - {fileID: 21300000, guid: 84d026373c1953a478682a765e144ab5, type: 3}
    - {fileID: 21300000, guid: a2a2e9dd2dcccb748bea80f34570a726, type: 3}
    - {fileID: 21300000, guid: d30b547d393cd4445bb330876fcea8df, type: 3}
    - {fileID: 21300000, guid: 1730264f1e4d70548a10626e0cc515e0, type: 3}
    - {fileID: 21300000, guid: 3989da07bd965d143b20918e8766037c, type: 3}
    - {fileID: 21300000, guid: a64a2321b8cef2144807e32f75faab3f, type: 3}
  m_AnimationClipSettings:
    serializedVersion: 2
    m_AdditiveReferencePoseClip: {fileID: 0}
    m_AdditiveReferencePoseTime: 0
    m_StartTime: 0
    m_StopTime: 0.33333334
    m_OrientationOffsetY: 0
    m_Level: 0
    m_CycleOffset: 0
    m_HasAdditiveReferencePose: 0
    m_LoopTime: 1
    m_LoopBlend: 0
    m_LoopBlendOrientation: 0
    m_LoopBlendPositionY: 0
    m_LoopBlendPositionXZ: 0
    m_KeepOriginalOrientation: 0
    m_KeepOriginalPositionY: 1
    m_KeepOriginalPositionXZ: 0
    m_HeightFromFeet: 0
    m_Mirror: 0
  m_EditorCurves: []
  m_EulerEditorCurves: []
  m_HasGenericRootTransform: 0
  m_HasMotionFloatCurves: 0
  m_Events: []
